LUMOS.vcd
$date
	Tue Jul 02 18:29:37 2024
$end
$version
	Icarus Verilog
$end
$timescale
	1ns
$end
$scope module LUMOS_Testbench $end
$var wire 32 ! f0 [31:0] $end
$var wire 32 " f1 [31:0] $end
$var wire 32 # f10 [31:0] $end
$var wire 32 $ f11 [31:0] $end
$var wire 32 % f12 [31:0] $end
$var wire 32 & f13 [31:0] $end
$var wire 32 ' f14 [31:0] $end
$var wire 32 ( f15 [31:0] $end
$var wire 32 ) f16 [31:0] $end
$var wire 32 * f17 [31:0] $end
$var wire 32 + f18 [31:0] $end
$var wire 32 , f19 [31:0] $end
$var wire 32 - f2 [31:0] $end
$var wire 32 . f20 [31:0] $end
$var wire 32 / f21 [31:0] $end
$var wire 32 0 f22 [31:0] $end
$var wire 32 1 f23 [31:0] $end
$var wire 32 2 f24 [31:0] $end
$var wire 32 3 f25 [31:0] $end
$var wire 32 4 f26 [31:0] $end
$var wire 32 5 f27 [31:0] $end
$var wire 32 6 f28 [31:0] $end
$var wire 32 7 f29 [31:0] $end
$var wire 32 8 f3 [31:0] $end
$var wire 32 9 f30 [31:0] $end
$var wire 32 : f31 [31:0] $end
$var wire 32 ; f4 [31:0] $end
$var wire 32 < f5 [31:0] $end
$var wire 32 = f6 [31:0] $end
$var wire 32 > f7 [31:0] $end
$var wire 32 ? f8 [31:0] $end
$var wire 32 @ f9 [31:0] $end
$var wire 32 A memoryData [31:0] $end
$var wire 32 B x0_zero [31:0] $end
$var wire 32 C x10_a0 [31:0] $end
$var wire 32 D x11_a1 [31:0] $end
$var wire 32 E x12_a2 [31:0] $end
$var wire 32 F x13_a3 [31:0] $end
$var wire 32 G x14_a4 [31:0] $end
$var wire 32 H x15_a5 [31:0] $end
$var wire 32 I x16_a6 [31:0] $end
$var wire 32 J x17_a7 [31:0] $end
$var wire 32 K x18_s2 [31:0] $end
$var wire 32 L x19_s3 [31:0] $end
$var wire 32 M x1_ra [31:0] $end
$var wire 32 N x20_s4 [31:0] $end
$var wire 32 O x21_s5 [31:0] $end
$var wire 32 P x22_s6 [31:0] $end
$var wire 32 Q x23_s7 [31:0] $end
$var wire 32 R x24_s8 [31:0] $end
$var wire 32 S x25_s9 [31:0] $end
$var wire 32 T x26_s10 [31:0] $end
$var wire 32 U x27_s11 [31:0] $end
$var wire 32 V x28_t3 [31:0] $end
$var wire 32 W x29_t4 [31:0] $end
$var wire 32 X x2_sp [31:0] $end
$var wire 32 Y x30_t5 [31:0] $end
$var wire 32 Z x31_t6 [31:0] $end
$var wire 32 [ x3_gp [31:0] $end
$var wire 32 \ x4_tp [31:0] $end
$var wire 32 ] x5_t0 [31:0] $end
$var wire 32 ^ x6_t1 [31:0] $end
$var wire 32 _ x7_t2 [31:0] $end
$var wire 32 ` x8_s0 [31:0] $end
$var wire 32 a x9_s1 [31:0] $end
$var wire 1 b trap $end
$var wire 1 c memoryReadWrite $end
$var wire 1 d memoryEnable $end
$var wire 32 e memoryAddress [31:0] $end
$var parameter 32 f CLK_PERIOD $end
$var reg 1 g clk $end
$var reg 32 h memoryData_reg [31:0] $end
$var reg 1 i memoryReady $end
$var reg 1 j reset $end
$scope module uut $end
$var wire 1 g clk $end
$var wire 32 k memoryData [31:0] $end
$var wire 1 i memoryReady $end
$var wire 1 j reset $end
$var wire 32 l readData2 [31:0] $end
$var wire 32 m readData1 [31:0] $end
$var wire 32 n immediate [31:0] $end
$var wire 32 o fpuResult [31:0] $end
$var wire 1 p fpuReady $end
$var wire 32 q fixedPointReadData2 [31:0] $end
$var wire 32 r fixedPointReadData1 [31:0] $end
$var wire 1 s aluZero $end
$var wire 1 t aluSign $end
$var wire 32 u aluResult [31:0] $end
$var parameter 32 v RESET_ADDRESS $end
$var reg 32 w FRS1 [31:0] $end
$var reg 32 x FRS2 [31:0] $end
$var reg 32 y RS1 [31:0] $end
$var reg 32 z RS2 [31:0] $end
$var reg 32 { aluOperand1 [31:0] $end
$var reg 32 | aluOperand2 [31:0] $end
$var reg 4 } aluOperation [3:0] $end
$var reg 32 ~ aluResultRegister [31:0] $end
$var reg 1 !" aluSignRegister $end
$var reg 2 "" aluSrcA [1:0] $end
$var reg 2 #" aluSrcB [1:0] $end
$var reg 1 $" aluZeroRegister $end
$var reg 1 %" fixedPointRegisterWriteEnable $end
$var reg 2 &" fixedPointRegisterWriteSource [1:0] $end
$var reg 32 '" fixedPointWriteData [31:0] $end
$var reg 2 (" fpuOperation [1:0] $end
$var reg 32 )" fpuResultRegister [31:0] $end
$var reg 3 *" funct3 [2:0] $end
$var reg 7 +" funct7 [6:0] $end
$var reg 1 ," instructionOrData $end
$var reg 3 -" instructionType [2:0] $end
$var reg 32 ." ir [31:0] $end
$var reg 1 /" irWrite $end
$var reg 32 0" memoryAddress [31:0] $end
$var reg 32 1" memoryDataRegister [31:0] $end
$var reg 1 2" memoryDataRegisterWrite $end
$var reg 1 d memoryEnable $end
$var reg 1 c memoryReadWrite $end
$var reg 5 3" nextState [4:0] $end
$var reg 7 4" opcode [6:0] $end
$var reg 32 5" pc [31:0] $end
$var reg 1 6" pcWrite $end
$var reg 1 7" registerWriteEnable $end
$var reg 2 8" registerWriteSource [1:0] $end
$var reg 5 9" state [4:0] $end
$var reg 1 b trap $end
$var reg 32 :" writeData [31:0] $end
$scope module arithmetic_logic_unit $end
$var wire 32 ;" operand_1 [31:0] $end
$var wire 32 <" operand_2 [31:0] $end
$var wire 4 =" operation [3:0] $end
$var reg 32 >" result [31:0] $end
$var reg 1 t sign $end
$var reg 1 s zero $end
$upscope $end
$scope module fixed_point_register_file $end
$var wire 1 g clk $end
$var wire 1 ?" read_enable_1 $end
$var wire 1 @" read_enable_2 $end
$var wire 5 A" read_index_1 [4:0] $end
$var wire 5 B" read_index_2 [4:0] $end
$var wire 1 j reset $end
$var wire 32 C" write_data [31:0] $end
$var wire 1 %" write_enable $end
$var wire 5 D" write_index [4:0] $end
$var parameter 32 E" DEPTH $end
$var parameter 32 F" WIDTH $end
$var reg 32 G" read_data_1 [31:0] $end
$var reg 32 H" read_data_2 [31:0] $end
$var integer 32 I" i [31:0] $end
$upscope $end
$scope module fixed_point_unit $end
$var wire 1 g clk $end
$var wire 32 J" operand_1 [31:0] $end
$var wire 32 K" operand_2 [31:0] $end
$var wire 2 L" operation [1:0] $end
$var wire 1 j reset $end
$var wire 32 M" multiplyResult [31:0] $end
$var parameter 2 N" CALC_STATE $end
$var parameter 32 O" FBITS $end
$var parameter 2 P" IDLE_STATE $end
$var parameter 32 Q" WIDTH $end
$var reg 16 R" A [15:0] $end
$var reg 16 S" B [15:0] $end
$var reg 32 T" accumulated_root [31:0] $end
$var reg 32 U" approx_root [31:0] $end
$var reg 3 V" caseNum [2:0] $end
$var reg 32 W" current_operand [31:0] $end
$var reg 2 X" current_state [1:0] $end
$var reg 32 Y" intermediate_result [31:0] $end
$var reg 32 Z" iteration_count [31:0] $end
$var reg 2 [" next_bits [1:0] $end
$var reg 32 \" operand_copy [31:0] $end
$var reg 32 ]" partialPordact1 [31:0] $end
$var reg 32 ^" partialPordact2 [31:0] $end
$var reg 32 _" partialPordact3 [31:0] $end
$var reg 32 `" partialPordact4 [31:0] $end
$var reg 64 a" product [63:0] $end
$var reg 1 b" product_ready $end
$var reg 1 p ready $end
$var reg 32 c" result [31:0] $end
$var reg 32 d" root [31:0] $end
$var reg 1 e" root_ready $end
$scope module multiplier $end
$var wire 16 f" operand_1 [15:0] $end
$var wire 16 g" operand_2 [15:0] $end
$var reg 32 h" product [31:0] $end
$upscope $end
$upscope $end
$scope module immediate_generator $end
$var wire 32 i" instruction [31:0] $end
$var wire 3 j" instruction_type [2:0] $end
$var reg 32 k" immediate [31:0] $end
$upscope $end
$scope module register_file $end
$var wire 1 g clk $end
$var wire 1 l" read_enable_1 $end
$var wire 1 m" read_enable_2 $end
$var wire 5 n" read_index_1 [4:0] $end
$var wire 5 o" read_index_2 [4:0] $end
$var wire 1 j reset $end
$var wire 32 p" write_data [31:0] $end
$var wire 1 q" write_enable $end
$var wire 5 r" write_index [4:0] $end
$var parameter 32 s" DEPTH $end
$var parameter 32 t" WIDTH $end
$var reg 32 u" read_data_1 [31:0] $end
$var reg 32 v" read_data_2 [31:0] $end
$var integer 32 w" i [31:0] $end
$upscope $end
$upscope $end
$upscope $end
$enddefinitions $end
$comment Show the parameter values. $end
$dumpall
b100000 t"
b101 s"
b100000 Q"
b0 P"
b1010 O"
b1 N"
b100000 F"
b101 E"
b0 v
b100 f
$end
#0
$dumpvars
b100000 w"
bx v"
bx u"
bz r"
xq"
bz p"
bz o"
bz n"
1m"
1l"
bz k"
bx j"
bz i"
b0 h"
b0 g"
b0 f"
0e"
b0 d"
bz c"
0b"
b0 a"
b0 `"
b0 _"
b0 ^"
b0 ]"
bx \"
bx ["
bx Z"
bx Y"
b0 X"
bx W"
b0 V"
bx U"
bx T"
b0 S"
b0 R"
b0 M"
bz L"
bx K"
bx J"
b100000 I"
bx H"
bx G"
bz D"
bz C"
bz B"
bz A"
1@"
1?"
bz >"
bz ="
bz <"
bz ;"
bz :"
b0 9"
bz 8"
z7"
z6"
b0 5"
bz 4"
b1 3"
x2"
bx 1"
bz 0"
z/"
bz ."
bx -"
z,"
bz +"
bz *"
bx )"
bz ("
bz '"
bz &"
z%"
x$"
bz #"
bz ""
x!"
bx ~
bz }
bz |
bz {
bx z
bx y
bx x
bx w
bz u
zt
0s
bx r
bx q
0p
bz o
bz n
bx m
bx l
bz k
1j
0i
bz h
1g
bz e
0d
zc
xb
b0 a
b0 `
b0 _
b0 ^
b0 ]
b0 \
b0 [
b0 Z
b0 Y
b0 X
b0 W
b0 V
b0 U
b0 T
b0 S
b0 R
b0 Q
b0 P
b0 O
b0 N
b0 M
b0 L
b0 K
b0 J
b0 I
b0 H
b0 G
b0 F
b0 E
b0 D
b0 C
b0 B
bz A
b0 @
b0 ?
b0 >
b0 =
b0 <
b0 ;
b0 :
b0 9
b0 8
b0 7
b0 6
b0 5
b0 4
b0 3
b0 2
b0 1
b0 0
b0 /
b0 .
b0 -
b0 ,
b0 +
b0 *
b0 )
b0 (
b0 '
b0 &
b0 %
b0 $
b0 #
b0 "
b0 !
$end
#2
0g
#4
b1 3"
bz )"
z!"
0$"
bz ~
b100000 I"
b100000 w"
1g
#6
0g
#8
b100000 w"
b100000 I"
1g
#10
0g
#12
b100000 I"
b100000 w"
1g
#14
0g
#16
b100000 w"
b100000 I"
1g
#18
0g
#20
0j
b100000 I"
b100000 w"
1g
#22
0g
#24
b0 e
b0 0"
bz A
bz k
0,"
0c
1d
b10 3"
b1 9"
1g
#26
0g
#28
0,"
0c
b10 3"
b10 9"
1g
#30
0g
#32
1g
#34
0g
#36
1g
#38
0g
#40
1g
#42
1/"
0,"
0c
b11 3"
1i
b100000100110111 A
b100000100110111 k
b100000100110111 h
0g
#44
0t
b100 |
b100 <"
b0 {
b0 ;"
bz e
bz 0"
b100 u
b100 >"
b0 l
b0 v"
b0 m
b0 u"
b0 q
b0 H"
b0 r
b0 G"
16"
b0 }
b0 ="
b1 #"
b0 ""
0d
z,"
z/"
zc
b100 3"
b0 n"
b0 o"
b10 r"
b0 A"
b0 B"
b10 D"
b0 +"
b100 *"
b110111 4"
b11 9"
0i
bz A
bz k
bz h
b100000100110111 ."
b100000100110111 i"
1g
#46
0g
#48
zt
bz |
bz <"
b100000000000000 n
b100000000000000 k"
bz u
bz >"
b100 -"
b100 j"
bz #"
bz ""
bz }
bz ="
z6"
b101 3"
bz {
bz ;"
b100 9"
b100 5"
b0 z
b0 y
b0 x
b0 K"
b0 w
b0 J"
0!"
b100 ~
1g
#50
0g
#52
0t
b100000000000000 :"
b100000000000000 p"
b100000000000000 |
b100000000000000 <"
b0 {
b0 ;"
1q"
b100000000000000 u
b100000000000000 >"
17"
b1 8"
b0 }
b0 ="
b10 #"
b11 ""
b1 3"
b101 9"
z!"
bz ~
1g
#54
0g
#56
zt
b100 e
b100 0"
bz :"
bz p"
bz |
bz <"
bz {
bz ;"
bz A
bz k
xq"
bz u
bz >"
0,"
0c
1d
z7"
bz 8"
bz #"
bz ""
bz }
bz ="
b10 3"
b100000000000000 X
b1 9"
0!"
b100000000000000 ~
1g
#58
0g
#60
0,"
0c
b10 3"
b10 9"
z!"
bz ~
1g
#62
0g
#64
1g
#66
0g
#68
1g
#70
0g
#72
1g
#74
1/"
0,"
0c
b11 3"
1i
b11000000000000010000000100010011 A
b11000000000000010000000100010011 k
b11000000000000010000000100010011 h
0g
#76
0t
b100 |
b100 <"
b100 {
b100 ;"
bz e
bz 0"
b1000 u
b1000 >"
b100000000000000 m
b100000000000000 u"
16"
b0 }
b0 ="
b1 #"
b0 ""
0d
z,"
z/"
zc
b100 3"
b10 n"
b10 A"
b11000000000000010000000000000000 n
b11000000000000010000000000000000 k"
b1100000 +"
b0 *"
b10011 4"
b11 9"
0i
bz A
bz k
bz h
b11000000000000010000000100010011 ."
b11000000000000010000000100010011 i"
1g
#78
0g
#80
zt
bz |
bz <"
b11111111111111111111110000000000 n
b11111111111111111111110000000000 k"
bz u
bz >"
b1 -"
b1 j"
bz #"
bz ""
bz }
bz ="
z6"
b101 3"
bz {
bz ;"
b100 9"
b1000 5"
b100000000000000 y
0!"
b1000 ~
1g
#82
0g
#84
0t
b11110000000000 :"
b11110000000000 p"
b11111111111111111111110000000000 |
b11111111111111111111110000000000 <"
b100000000000000 {
b100000000000000 ;"
1q"
b11110000000000 u
b11110000000000 >"
17"
b1 8"
b0 }
b0 ="
b10 #"
b1 ""
b1 3"
b101 9"
z!"
bz ~
1g
#86
0g
#88
zt
b1000 e
b1000 0"
bz :"
bz p"
bz |
bz <"
bz {
bz ;"
bz A
bz k
xq"
bz u
bz >"
b11110000000000 m
b11110000000000 u"
0,"
0c
1d
z7"
bz 8"
bz #"
bz ""
bz }
bz ="
b10 3"
b11110000000000 X
b1 9"
0!"
b11110000000000 ~
1g
#90
0g
#92
0,"
0c
b10 3"
b10 9"
z!"
bz ~
b11110000000000 y
1g
#94
0g
#96
1g
#98
0g
#100
1g
#102
0g
#104
1g
#106
1/"
0,"
0c
b11 3"
1i
b11000100000010000000110010011 A
b11000100000010000000110010011 k
b11000100000010000000110010011 h
0g
#108
0t
b100 |
b100 <"
b1000 {
b1000 ;"
bz e
bz 0"
b1100 u
b1100 >"
16"
b0 }
b0 ="
b1 #"
b0 ""
0d
z,"
z/"
zc
b100 3"
b1000 o"
b11 r"
b1000 B"
b11 D"
b110001000 n
b110001000 k"
b1100 +"
b11 9"
0i
bz A
bz k
bz h
b11000100000010000000110010011 ."
b11000100000010000000110010011 i"
1g
#110
0g
#112
zt
bz |
bz <"
bz u
bz >"
bz #"
bz ""
bz }
bz ="
z6"
b101 3"
bz {
bz ;"
b100 9"
b1100 5"
0!"
b1100 ~
1g
#114
0g
#116
0t
b11110110001000 :"
b11110110001000 p"
b110001000 |
b110001000 <"
b11110000000000 {
b11110000000000 ;"
1q"
b11110110001000 u
b11110110001000 >"
17"
b1 8"
b0 }
b0 ="
b10 #"
b1 ""
b1 3"
b101 9"
z!"
bz ~
1g
#118
0g
#120
zt
b1100 e
b1100 0"
bz :"
bz p"
bz |
bz <"
bz {
bz ;"
bz A
bz k
xq"
bz u
bz >"
0,"
0c
1d
z7"
bz 8"
bz #"
bz ""
bz }
bz ="
b10 3"
b11110110001000 [
b1 9"
0!"
b11110110001000 ~
1g
#122
0g
#124
0,"
0c
b10 3"
b10 9"
z!"
bz ~
1g
#126
0g
#128
1g
#130
0g
#132
1g
#134
0g
#136
1g
#138
1/"
0,"
0c
b11 3"
1i
b10010000010000111 A
b10010000010000111 k
b10010000010000111 h
0g
#140
0t
b100 |
b100 <"
b1100 {
b1100 ;"
bz e
bz 0"
b10000 u
b10000 >"
16"
b0 }
b0 ="
b1 #"
b0 ""
0d
z,"
z/"
zc
b100 3"
b0 o"
b1 r"
b0 B"
b1 D"
b0 n
b0 k"
b0 +"
b10 *"
b111 4"
b11 9"
0i
bz A
bz k
bz h
b10010000010000111 ."
b10010000010000111 i"
1g
#142
0g
#144
zt
bz |
bz <"
bz u
bz >"
bz #"
bz ""
bz }
bz ="
z6"
b101 3"
bz {
bz ;"
b100 9"
b10000 5"
0!"
b10000 ~
1g
#146
0g
#148
0t
b0 |
b0 <"
b11110000000000 {
b11110000000000 ;"
b11110000000000 u
b11110000000000 >"
b0 }
b0 ="
b10 #"
b1 ""
b1010 3"
b101 9"
z!"
bz ~
1g
#150
0g
#152
b11110000000000 e
b11110000000000 0"
bz A
bz k
1,"
0c
1d
b11 #"
b10 ""
b0 }
b0 ="
b1011 3"
b1010 9"
0!"
b11110000000000 ~
1g
#154
0g
#156
1,"
b11 #"
b10 ""
b0 }
b0 ="
0c
b1011 3"
b1011 9"
1g
#158
0g
#160
1g
#162
0g
#164
1g
#166
0g
#168
1g
#170
12"
1,"
b11 #"
b10 ""
b0 }
b0 ="
0c
b1100 3"
1i
b100000000000 A
b100000000000 k
b100000000000 h
0g
#172
zt
b100000000000 '"
b100000000000 C"
bz e
bz 0"
bz |
bz <"
bz {
bz ;"
bz u
bz >"
0d
1%"
b0 &"
z,"
bz #"
bz ""
bz }
bz ="
zc
b1 3"
b1100 9"
0i
bz A
bz k
bz h
b100000000000 1"
1g
#174
0g
#176
b10000 e
b10000 0"
bz '"
bz C"
bz A
bz k
0,"
0c
1d
z%"
bz &"
b10 3"
b100000000000 "
b1 9"
z!"
bz ~
1g
#178
0g
#180
0,"
0c
b10 3"
b10 9"
bz 1"
1g
#182
0g
#184
1g
#186
0g
#188
1g
#190
0g
#192
1g
#194
1/"
0,"
0c
b11 3"
1i
b10000010010000100000111 A
b10000010010000100000111 k
b10000010010000100000111 h
0g
#196
0t
b100 |
b100 <"
b10000 {
b10000 ;"
bz e
bz 0"
b10100 u
b10100 >"
16"
b0 }
b0 ="
b1 #"
b0 ""
0d
z,"
z/"
zc
b100 3"
b100 o"
b10 r"
b100 B"
b10 D"
b100 n
b100 k"
b11 9"
0i
bz A
bz k
bz h
b10000010010000100000111 1"
b10000010010000100000111 ."
b10000010010000100000111 i"
1g
#198
0g
#200
zt
bz |
bz <"
bz u
bz >"
bz #"
bz ""
bz }
bz ="
z6"
b101 3"
bz {
bz ;"
b100 9"
b10100 5"
0!"
b10100 ~
1g
#202
0g
#204
0t
b100 |
b100 <"
b11110000000000 {
b11110000000000 ;"
b11110000000100 u
b11110000000100 >"
b0 }
b0 ="
b10 #"
b1 ""
b1010 3"
b101 9"
z!"
bz ~
1g
#206
0g
#208
b11110000000100 e
b11110000000100 0"
b0 |
b0 <"
b11110000000100 {
b11110000000100 ;"
bz A
bz k
1,"
0c
1d
b11 #"
b10 ""
b0 }
b0 ="
b1011 3"
b1010 9"
0!"
b11110000000100 ~
1g
#210
0g
#212
1,"
b11 #"
b10 ""
b0 }
b0 ="
0c
b1011 3"
b1011 9"
bz 1"
1g
#214
0g
#216
1g
#218
0g
#220
1g
#222
0g
#224
1g
#226
1,"
b11 #"
b10 ""
b0 }
b0 ="
0c
b1100 3"
1i
b1100010000000000 A
b1100010000000000 k
b1100010000000000 h
0g
#228
zt
b1100010000000000 '"
b1100010000000000 C"
bz e
bz 0"
bz |
bz <"
bz {
bz ;"
bz u
bz >"
0d
1%"
b0 &"
z,"
bz #"
bz ""
bz }
bz ="
zc
b1 3"
b1100 9"
0i
bz A
bz k
bz h
b1100010000000000 1"
1g
#230
0g
#232
b10100 e
b10100 0"
bz '"
bz C"
bz A
bz k
b1100010000000000 r
b1100010000000000 G"
0,"
0c
1d
z%"
bz &"
b10 3"
b1100010000000000 -
b1 9"
z!"
bz ~
1g
#234
0g
#236
0,"
0c
b10 3"
b10 9"
b1100010000000000 w
b1100010000000000 J"
bz 1"
1g
#238
0g
#240
1g
#242
0g
#244
1g
#246
0g
#248
1g
#250
1/"
0,"
0c
b11 3"
1i
b10000000100001000010101010011 A
b10000000100001000010101010011 k
b10000000100001000010101010011 h
0g
#252
0t
b100 |
b100 <"
b10100 {
b10100 ;"
bz e
bz 0"
b11000 u
b11000 >"
b0 m
b0 u"
b100000000000 q
b100000000000 H"
b100000000000 r
b100000000000 G"
16"
b0 }
b0 ="
b1 #"
b0 ""
0d
z,"
z/"
zc
b100 3"
b1 n"
b1 o"
b1010 r"
b1 A"
b1 B"
b1010 D"
b100000001 n
b100000001 k"
b1000 +"
b0 *"
b1010011 4"
b11 9"
0i
bz A
bz k
bz h
b10000000100001000010101010011 1"
b10000000100001000010101010011 ."
b10000000100001000010101010011 i"
1g
#254
0g
#256
zt
bz |
bz <"
bz n
bz k"
bz u
bz >"
b0 -"
b0 j"
bz #"
bz ""
bz }
bz ="
z6"
b101 3"
bz {
bz ;"
b100 9"
b11000 5"
b0 y
b100000000000 x
b100000000000 K"
b100000000000 w
b100000000000 J"
0!"
b11000 ~
1g
#258
0g
#260
b0 o
b0 c"
b10 ("
b10 L"
b1101 3"
b101 9"
z!"
bz ~
1g
#262
0g
#264
b10000000000000000000000 M"
b10000000000000000000000 h"
b1101 3"
b1 V"
b100000000000 S"
b100000000000 g"
b100000000000 R"
b100000000000 f"
b1101 9"
b0 )"
1g
#266
0g
#268
b0 M"
b0 h"
b10 V"
b0 R"
b0 f"
b10000000000000000000000 ]"
1g
#270
0g
#272
b11 V"
b0 S"
b0 g"
b100000000000 R"
b100000000000 f"
1g
#274
0g
#276
b100 V"
b0 R"
b0 f"
1g
#278
0g
#280
b101 V"
1g
#282
0g
#284
b1000000000000 '"
b1000000000000 C"
1%"
b11 &"
b1 3"
1p
b1000000000000 o
b1000000000000 c"
b0 V"
1b"
b10000000000000000000000 a"
1g
#286
0g
#288
0p
bz o
bz c"
b11000 e
b11000 0"
bz ("
bz L"
bz '"
bz C"
bz A
bz k
b10000000000000000000000 M"
b10000000000000000000000 h"
0,"
0c
1d
z%"
bz &"
b10 3"
b1000000000000 #
b1 V"
b100000000000 S"
b100000000000 g"
b100000000000 R"
b100000000000 f"
b1 9"
b1000000000000 )"
1g
#290
0g
#292
0,"
0c
b10 3"
b10 9"
bz )"
bz 1"
1g
#294
0g
#296
1g
#298
0g
#300
1g
#302
0g
#304
1g
#306
1/"
0,"
0c
b11 3"
1i
b10000001000010000101001010011 A
b10000001000010000101001010011 k
b10000001000010000101001010011 h
0g
#308
0t
b100 |
b100 <"
b11000 {
b11000 ;"
bz e
bz 0"
b11100 u
b11100 >"
b11110000000000 l
b11110000000000 v"
b11110000000000 m
b11110000000000 u"
b1100010000000000 q
b1100010000000000 H"
b1100010000000000 r
b1100010000000000 G"
16"
b0 }
b0 ="
b1 #"
b0 ""
0d
z,"
z/"
zc
b100 3"
b10 n"
b10 o"
b10100 r"
b10 A"
b10 B"
b10100 D"
b11 9"
0i
bz A
bz k
bz h
b10000001000010000101001010011 1"
b10000001000010000101001010011 ."
b10000001000010000101001010011 i"
1g
#310
0g
#312
zt
bz |
bz <"
bz u
bz >"
bz #"
bz ""
bz }
bz ="
z6"
b101 3"
bz {
bz ;"
b100 9"
b11100 5"
b11110000000000 z
b11110000000000 y
b1100010000000000 x
b1100010000000000 K"
b1100010000000000 w
b1100010000000000 J"
0!"
b11100 ~
1g
#314
0g
#316
1p
b1000000000000 o
b1000000000000 c"
b10 ("
b10 L"
b1101 3"
b101 9"
z!"
bz ~
1g
#318
0g
#320
b1000000000000 '"
b1000000000000 C"
b0 M"
b0 h"
1%"
b11 &"
b1 3"
b10 V"
b1100010000000000 S"
b1100010000000000 g"
b0 R"
b0 f"
b1101 9"
b1000000000000 )"
1g
#322
0g
#324
0p
bz o
bz c"
b11100 e
b11100 0"
bz ("
bz L"
bz '"
bz C"
bz A
bz k
0,"
0c
1d
z%"
bz &"
b10 3"
b1 9"
b11 V"
b0 S"
b0 g"
b1100010000000000 R"
b1100010000000000 f"
b1000000000000 .
1g
#326
0g
#328
0,"
0c
b10 3"
b10 9"
bz 1"
bz )"
1g
#330
0g
#332
1g
#334
0g
#336
1g
#338
0g
#340
1g
#342
1/"
0,"
0c
b11 3"
1i
b1010001010000111101010011 A
b1010001010000111101010011 k
b1010001010000111101010011 h
0g
#344
0t
b100 |
b100 <"
b11100 {
b11100 ;"
bz e
bz 0"
b100000 u
b100000 >"
b0 l
b0 v"
b0 m
b0 u"
b1000000000000 q
b1000000000000 H"
b1000000000000 r
b1000000000000 G"
16"
b0 }
b0 ="
b1 #"
b0 ""
0d
z,"
z/"
zc
b100 3"
b1010 n"
b10100 o"
b11110 r"
b1010 A"
b10100 B"
b11110 D"
b0 +"
b11 9"
b1010001010000111101010011 ."
b1010001010000111101010011 i"
b1010001010000111101010011 1"
0i
bz A
bz k
bz h
1g
#346
0g
#348
zt
bz |
bz <"
bz u
bz >"
bz #"
bz ""
bz }
bz ="
z6"
b101 3"
bz {
bz ;"
b100 9"
0!"
b100000 ~
b1000000000000 x
b1000000000000 K"
b1000000000000 w
b1000000000000 J"
b0 z
b0 y
b100000 5"
1g
#350
0g
#352
1p
b10000000000000 o
b10000000000000 c"
b0 ("
b0 L"
b1101 3"
b101 9"
z!"
bz ~
1g
#354
0g
#356
b10000000000000 '"
b10000000000000 C"
1%"
b11 &"
b1 3"
b1101 9"
b10000000000000 )"
1g
#358
0g
#360
0p
bz o
bz c"
b100000 e
b100000 0"
bz ("
bz L"
bz '"
bz C"
bz A
bz k
0,"
0c
1d
z%"
bz &"
b10 3"
b10000000000000 9
b1 9"
1g
#362
0g
#364
0,"
0c
b10 3"
b10 9"
bz )"
bz 1"
1g
#366
0g
#368
1g
#370
0g
#372
1g
#374
0g
#376
1g
#378
1/"
0,"
0c
b11 3"
1i
b1011000000011110000000111010011 A
b1011000000011110000000111010011 k
b1011000000011110000000111010011 h
0g
#380
0t
b100 |
b100 <"
b100000 {
b100000 ;"
bz e
bz 0"
b100100 u
b100100 >"
b0 q
b0 H"
b10000000000000 r
b10000000000000 G"
16"
b0 }
b0 ="
b1 #"
b0 ""
0d
z,"
z/"
zc
b100 3"
b11110 n"
b0 o"
b11 r"
b11110 A"
b0 B"
b11 D"
b101100 +"
b11 9"
0i
bz A
bz k
bz h
b1011000000011110000000111010011 1"
b1011000000011110000000111010011 ."
b1011000000011110000000111010011 i"
1g
#382
0g
#384
zt
bz |
bz <"
bz u
bz >"
bz #"
bz ""
bz }
bz ="
z6"
b101 3"
bz {
bz ;"
b100 9"
b100100 5"
b0 x
b0 K"
b10000000000000 w
b10000000000000 J"
0!"
b100100 ~
1g
#386
0g
#388
b0 o
b0 c"
b11 ("
b11 L"
b1101 3"
b101 9"
z!"
bz ~
1g
#390
0g
#392
b1101 3"
b1101 9"
b0 T"
b1 X"
b10101 Z"
b1 U"
b0 W"
b0 )"
1g
#394
0g
#396
b10100 Z"
bx W"
bx00 \"
b1 T"
b11111111111111111111111111111111 Y"
1g
#398
0g
#400
b10011 Z"
b101 U"
bx0000 \"
b11 T"
bx Y"
1g
#402
0g
#404
b10010 Z"
b1101 U"
bx000000 \"
b111 T"
1g
#406
0g
#408
b10001 Z"
b11101 U"
bx00000000 \"
b1111 T"
1g
#410
0g
#412
b10000 Z"
b111101 U"
bx0000000000 \"
b11111 T"
1g
#414
0g
#416
b1111 Z"
b1111101 U"
bx000000000000 \"
b111111 T"
1g
#418
0g
#420
b1110 Z"
b11111101 U"
bx00000000000000 \"
b1111111 T"
1g
#422
0g
#424
b1101 Z"
b111111101 U"
bx0000000000000000 \"
b11111111 T"
1g
#426
0g
#428
b1100 Z"
b1111111101 U"
bx000000000000000000 \"
b111111111 T"
1g
#430
0g
#432
b1011 Z"
b11111111101 U"
bx00000000000000000000 \"
b1111111111 T"
1g
#434
0g
#436
b1010 Z"
b111111111101 U"
bx0000000000000000000000 \"
b11111111111 T"
1g
#438
0g
#440
b1001 Z"
b1111111111101 U"
bx000000000000000000000000 \"
b111111111111 T"
1g
#442
0g
#444
b1000 Z"
b11111111111101 U"
bx00000000000000000000000000 \"
b1111111111111 T"
1g
#446
0g
#448
b111 Z"
b111111111111101 U"
bx0000000000000000000000000000 \"
b11111111111111 T"
1g
#450
0g
#452
b110 Z"
b1111111111111101 U"
bx000000000000000000000000000000 \"
b111111111111111 T"
1g
#454
0g
#456
b101 Z"
b11111111111111101 U"
b0 \"
b1111111111111111 T"
1g
#458
0g
#460
b100 Z"
b111111111111111101 U"
b0 ["
b11111111111111111 T"
1g
#462
0g
#464
b11 Z"
b1111111111111111101 U"
b111111111111111111 T"
1g
#466
0g
#468
b10 Z"
b11111111111111111101 U"
b1111111111111111111 T"
1g
#470
0g
#472
b1 Z"
b111111111111111111101 U"
b11111111111111111111 T"
1g
#474
0g
#476
b0 Z"
b1111111111111111111101 U"
b111111111111111111111 T"
1g
#478
0g
#480
b111111111111111111111 '"
b111111111111111111111 C"
1%"
b11 &"
b1 3"
1p
b111111111111111111111 o
b111111111111111111111 c"
b0 X"
1e"
b111111111111111111111 d"
1g
#482
0g
#484
0p
bz o
bz c"
b100100 e
b100100 0"
bz ("
bz L"
bz '"
bz C"
bz A
bz k
0,"
0c
1d
z%"
bz &"
b10 3"
b1 9"
b111111111111111111111 8
b111111111111111111111 )"
b0 T"
b1 X"
b10101 Z"
b1 U"
b0 W"
1g
#486
0g
#488
0,"
0c
b10 3"
b10 9"
b10100 Z"
b1 T"
b11111111111111111111111111111111 Y"
bz 1"
bz )"
1g
#490
0g
#492
b10011 Z"
b101 U"
b11 T"
1g
#494
0g
#496
b10010 Z"
b1101 U"
b111 T"
b11111111111111111111111111111011 Y"
1g
#498
0g
#500
b10001 Z"
b11101 U"
b1111 T"
b11111111111111111111111111110011 Y"
1g
#502
1/"
0,"
0c
b11 3"
1i
b1100000000000001010011 A
b1100000000000001010011 k
b1100000000000001010011 h
0g
